%YAML 1.1
%TAG !u! tag:unity3d.com,2011:
--- !u!114 &11400000
MonoBehaviour:
  m_ObjectHideFlags: 0
  m_CorrespondingSourceObject: {fileID: 0}
  m_PrefabInstance: {fileID: 0}
  m_PrefabAsset: {fileID: 0}
  m_GameObject: {fileID: 0}
  m_Enabled: 1
  m_EditorHideFlags: 0
  m_Script: {fileID: 11500000, guid: df829ebad2b51d343a00220021f3e898, type: 3}
  m_Name: BombEnemy
  m_EditorClassIdentifier: 
  enemyCharacteristics:
    name: 
    _hp: 100
    _attackZone: 10
    _speed: 10
    _damage: 10
    _damageCd: 2
